%YAML 1.1
%TAG !u! tag:unity3d.com,2011:
--- !u!162 &1
EditorUserSettings:
  m_ObjectHideFlags: 0
  serializedVersion: 4
  m_ConfigSettings:
    RecentlyUsedScenePath-0:
      value: 22424703114646680e0b0227036c7315001214157d171622223d1227fbf03176f7e93ffdfe
      flags: 0
    RecentlyUsedScenePath-1:
      value: 22424703114646490201016c052d56040f
      flags: 0
    RecentlyUsedScenePath-2:
      value: 22424703114646680e0b0227036c711501572b29292623707c67083debf42d
      flags: 0
    RecentlyUsedScenePath-3:
      value: 22424703114646680e0b0227036c73150012147b611a23312167083debf42d
      flags: 0
    RecentlyUsedScenePath-4:
      value: 22424703114646680e0b0227036c73150012147b6c072a34633c133af6f9
      flags: 0
    RecentlyUsedScenePath-5:
      value: 22424703114646680e0b0227036c69111a12166439262f2434
      flags: 0
    RecentlyUsedScenePath-6:
      value: 22424703114646680e0b0227036c711501572b292926237e38271427fb
      flags: 0
    RecentlyUsedScenePath-7:
      value: 22424703114646680e0b0227036c72151802563f22213229
      flags: 0
    RecentlyUsedScenePath-8:
      value: 22424703114646680e0b0227036c73150012147b623d28393930
      flags: 0
    RecentlyUsedScenePath-9:
      value: 22424703114646680e0b0227036c681918590d24253c3f
      flags: 0
    vcSharedLogLevel:
      value: 0d5e400f0650
      flags: 0
  m_VCAutomaticAdd: 1
  m_VCDebugCom: 0
  m_VCDebugCmd: 0
  m_VCDebugOut: 0
  m_SemanticMergeMode: 2
  m_VCShowFailedCheckout: 1
  m_VCOverwriteFailedCheckoutAssets: 1
  m_VCProjectOverlayIcons: 1
  m_VCHierarchyOverlayIcons: 1
  m_VCOtherOverlayIcons: 1
  m_VCAllowAsyncUpdate: 1
